Kapitel 3 Datamanipulering med dplyr | Kursmaterial till Certifierad Data Scientist
…
Hitta alla flygbolag som finns i c("UA", "DL") i februari eller mars och som inte var försenade.

filter(flights, carrier %in% c("UA", "DL"), month == 2 | month == 3, dep_delay <= 0)

## # A tibble: 10,346 x 19
##     year month   day dep_time sched_dep_time dep_delay arr_time
##    <int> <int> <int>    <int>          <int>     <dbl>    <int>
##  1  2013     2     1      520            525        -5      816
##  2  2013     2     1      527            530        -3      837
##  3  2013     2     1      554            601        -7      920
##  4  2013     2     1      558            600        -2      738
##  5  2013     2     1      559            600        -1      923
##  6  2013     2     1      600            600         0      833
##  7  2013     2     1      601            608        -7      703
##  8  2013     2     1      601            608        -7      723
##  9  2013     2     1      604            610        -6      752
## 10  2013     2     1      608            615        -7      837
## # … with 10,336 more rows, and 12 more variables: sched_arr_time <int>,
## #   arr_delay <dbl>, carrier <chr>, flight <int>, tailnum <chr>,
## #   origin <chr>, dest <chr>, air_time <dbl>, distance <dbl>, hour <dbl>,
## #   minute <dbl>, time_hour <dttm>
…
lämnade JFK och var försenade

lämnade JFK på julafton

var försenade, men inte kom fram försent

flög United Airlines (UA) eller American Airlines?

3.2 Arrange

arrange() kastar om ordningen på dina rader enligt en av dig vald variabel. Exempelvis kanske vi vill sortera data på försenade avgångar dep_delay.

arrange(flights, dep_delay)

## # A tibble: 336,776 x 19
##     year month   day dep_time sched_dep_time dep_delay arr_time
##    <int> <int> <int>    <int>          <int>     <dbl>    <int>
##  1  2013    12     7     2040           2123       -43       40
##  2  2013     2     3     2022           2055       -33     2240
##  3  2013    11    10     1408           1440       -32     1549
##  4  2013     1    11     1900           1930       -30     2233
##  5  2013     1    29     1703           1730       -27     1947
##  6  2013     8     9      729            755       -26     1002
##  7  2013    10    23     1907           1932       -25     2143
##  8  2013     3    30     2030           2055       -25     2213
##  9  2013     3     2     1431           1455       -24     1601
## 10  2013     5     5      934            958       -24     1225
## # … with 336,766 more rows, and 12 more variables: sched_arr_time <int>,
## #   arr_delay <dbl>, carrier <chr>, flight <int>, tailnum <chr>,
## #   origin <chr>, dest <chr>, air_time <dbl>, distance <dbl>, hour <dbl>,
## #   minute <dbl>, time_hour <dttm>

arrange() sorterar per default på sjunkande värde (ascending). Vill du sortera på stigande värde (descending) sätter du desc() runt din variabel.

arrange(flights, desc(dep_delay))

## # A tibble: 336,776 x 19
##     year month   day dep_time sched_dep_time dep_delay arr_time
##    <int> <int> <int>    <int>          <int>     <dbl>    <int>
##  1  2013     1     9      641            900      1301     1242
##  2  2013     6    15     1432           1935      1137     1607
##  3  2013     1    10     1121           1635      1126     1239
##  4  2013     9    20     1139           1845      1014     1457
##  5  2013     7    22      845           1600      1005     1044
##  6  2013     4    10     1100           1900       960     1342
##  7  2013     3    17     2321            810       911      135
##  8  2013     6    27      959           1900       899     1236
##  9  2013     7    22     2257            759       898      121
## 10  2013    12     5      756           1700       896     1058
## # … with 336,766 more rows, and 12 more variables: sched_arr_time <int>,
## #   arr_delay <dbl>, carrier <chr>, flight <int>, tailnum <chr>,
## #   origin <chr>, dest <chr>, air_time <dbl>, distance <dbl>, hour <dbl>,
## #   minute <dbl>, time_hour <dttm>
3.2.1 Övning

Hitta det flyg som…

flög längst

var mest försenat (när det kom fram)

3.3 Select

Medan arrange() kastar om raderna så kastar select() om kolumnerna. Men mest används den för att välja ut kolumner av intresse.

select(flights, dep_delay, carrier)

## # A tibble: 336,776 x 2
##    dep_delay carrier
##        <dbl> <chr>  
##  1         2 UA     
##  2         4 UA     
##  3         2 AA     
##  4        -1 B6     
##  5        -6 DL     
##  6        -4 UA     
##  7        -5 B6     
##  8        -3 EV     
##  9        -3 B6     
## 10        -2 AA     
## # … with 336,766 more rows

Om du av något skäl vill flytta en kolumn till början kan du skriva:

select(flights, carrier, everything())

## # A tibble: 336,776 x 19
##    carrier  year month   day dep_time sched_dep_time dep_delay arr_time
##    <chr>   <int> <int> <int>    <int>          <int>     <dbl>    <int>
##  1 UA       2013     1     1      517            515         2      830
##  2 UA       2013     1     1      533            529         4      850
##  3 AA       2013     1     1      542            540         2      923
##  4 B6       2013     1     1      544            545        -1     1004
##  5 DL       2013     1     1      554            600        -6      812
##  6 UA       2013     1     1      554            558        -4      740
##  7 B6       2013     1     1      555            600        -5      913
##  8 EV       2013     1     1      557            600        -3      709
##  9 B6       2013     1     1      557            600        -3      838
## 10 AA       2013     1     1      558            600        -2      753
## # … with 336,766 more rows, and 11 more variables: sched_arr_time <int>,
## #   arr_delay <dbl>, flight <int>, tailnum <chr>, origin <chr>,
## #   dest <chr>, air_time <dbl>, distance <dbl>, hour <dbl>, minute <dbl>,
## #   time_hour <dttm>

Du kan även välja alla kolumner mellan två kolumner:

select(flights, year:day)

## # A tibble: 336,776 x 3
##     year month   day
##    <int> <int> <int>
##  1  2013     1     1
##  2  2013     1     1
##  3  2013     1     1
##  4  2013     1     1
##  5  2013     1     1
##  6  2013     1     1
##  7  2013     1     1
##  8  2013     1     1
##  9  2013     1     1
## 10  2013     1     1
## # … with 336,766 more rows

Genom att sätta ett minus framför variabelnamnet exkluderar du variabeln.

select(flights, -year)

## # A tibble: 336,776 x 18
##    month   day dep_time sched_dep_time dep_delay arr_time sched_arr_time
##    <int> <int>    <int>          <int>     <dbl>    <int>          <int>
##  1     1     1      517            515         2      830            819
##  2     1     1      533            529         4      850            830
##  3     1     1      542            540         2      923            850
##  4     1     1      544            545        -1     1004           1022
##  5     1     1      554            600        -6      812            837
##  6     1     1      554            558        -4      740            728
##  7     1     1      555            600        -5      913            854
##  8     1     1      557            600        -3      709            723
##  9     1     1      557            600        -3      838            846
## 10     1     1      558            600        -2      753            745
## # … with 336,766 more rows, and 11 more variables: arr_delay <dbl>,
## #   carrier <chr>, flight <int>, tailnum <chr>, origin <chr>, dest <chr>,
## #   air_time <dbl>, distance <dbl>, hour <dbl>, minute <dbl>,
## #   time_hour <dttm>
…
ends_with("air")

contains("flyg")

matches("asd")

num_range("flyg", 1:10)

De används för att identifiera kolumner baserat på text.

Exempelvis kan du hitta alla delay-kolumner med contains.

select(flights, contains("delay"))

## # A tibble: 336,776 x 2
##    dep_delay arr_delay
##        <dbl>     <dbl>
##  1         2        11
##  2         4        20
##  3         2        33
##  4        -1       -18
##  5        -6       -25
##  6        -4        12
##  7        -5        19
##  8        -3       -14
##  9        -3        -8
## 10        -2         8
## # … with 336,766 more rows
…
Som innehåller “dep”

Som börjar med “dep”

Döp om dep_delay till försenad_avgång

3.4 Mutate

mutate() används för att skapa nya variabler.

Exempelvis kan vi räkna ut hur mycket tid man vunnit om exempelvis flyget landar tidigare än avsett.

mutate(flights, beer_time = dep_delay - arr_delay)

## # A tibble: 336,776 x 20
##     year month   day dep_time sched_dep_time dep_delay arr_time
##    <int> <int> <int>    <int>          <int>     <dbl>    <int>
##  1  2013     1     1      517            515         2      830
##  2  2013     1     1      533            529         4      850
##  3  2013     1     1      542            540         2      923
##  4  2013     1     1      544            545        -1     1004
##  5  2013     1     1      554            600        -6      812
##  6  2013     1     1      554            558        -4      740
##  7  2013     1     1      555            600        -5      913
##  8  2013     1     1      557            600        -3      709
##  9  2013     1     1      557            600        -3      838
## 10  2013     1     1      558            600        -2      753
## # … with 336,766 more rows, and 13 more variables: sched_arr_time <int>,
## #   arr_delay <dbl>, carrier <chr>, flight <int>, tailnum <chr>,
## #   origin <chr>, dest <chr>, air_time <dbl>, distance <dbl>, hour <dbl>,
## #   minute <dbl>, time_hour <dttm>, beer_time <dbl>

I mutate() kan du även använda funktioner såsom mean().

mutate(flights, mean_delay = mean(dep_delay, na.rm = T))

## # A tibble: 336,776 x 20
##     year month   day dep_time sched_dep_time dep_delay arr_time
##    <int> <int> <int>    <int>          <int>     <dbl>    <int>
##  1  2013     1     1      517            515         2      830
##  2  2013     1     1      533            529         4      850
##  3  2013     1     1      542            540         2      923
##  4  2013     1     1      544            545        -1     1004
##  5  2013     1     1      554            600        -6      812
##  6  2013     1     1      554            558        -4      740
##  7  2013     1     1      555            600        -5      913
##  8  2013     1     1      557            600        -3      709
##  9  2013     1     1      557            600        -3      838
## 10  2013     1     1      558            600        -2      753
## # … with 336,766 more rows, and 13 more variables: sched_arr_time <int>,
## #   arr_delay <dbl>, carrier <chr>, flight <int>, tailnum <chr>,
## #   origin <chr>, dest <chr>, air_time <dbl>, distance <dbl>, hour <dbl>,
## #   minute <dbl>, time_hour <dttm>, mean_delay <dbl>

3.4.1 if_else()

En vanlig funktion i databearbetning är ifelse-satser.

I R gör du det enklast med funktionen if_else() från dplyr. Det finns även en inbyggd funktion som heter ifelse() som mestadels fungerar bra men den från dplyr är något mer stabil.

Du kan använda den i mutate:

mutate(flights, försenad = if_else(dep_delay  > 5, "försenad", "ej försenad"))

## # A tibble: 336,776 x 20
##     year month   day dep_time sched_dep_time dep_delay arr_time
##    <int> <int> <int>    <int>          <int>     <dbl>    <int>
##  1  2013     1     1      517            515         2      830
##  2  2013     1     1      533            529         4      850
##  3  2013     1     1      542            540         2      923
##  4  2013     1     1      544            545        -1     1004
##  5  2013     1     1      554            600        -6      812
##  6  2013     1     1      554            558        -4      740
##  7  2013     1     1      555            600        -5      913
##  8  2013     1     1      557            600        -3      709
##  9  2013     1     1      557            600        -3      838
## 10  2013     1     1      558            600        -2      753
## # … with 336,766 more rows, and 13 more variables: sched_arr_time <int>,
## #   arr_delay <dbl>, carrier <chr>, flight <int>, tailnum <chr>,
## #   origin <chr>, dest <chr>, air_time <dbl>, distance <dbl>, hour <dbl>,
## #   minute <dbl>, time_hour <dttm>, försenad <chr>

Ibland vill man göra flera stycken if_else() i samma, exempelvis om man vill dela upp en variabel i flera kategorier beroende på ett logiskt villkor. För att göra det kan du använda funktionen case_when().

mutate(flights, försenad_kat = case_when(
dep_delay < 0 ~ "före tid",
dep_delay == 0 ~ "i tid",
dep_delay > 0 ~ "försenad")) 

## # A tibble: 336,776 x 20
##     year month   day dep_time sched_dep_time dep_delay arr_time
##    <int> <int> <int>    <int>          <int>     <dbl>    <int>
##  1  2013     1     1      517            515         2      830
##  2  2013     1     1      533            529         4      850
##  3  2013     1     1      542            540         2      923
##  4  2013     1     1      544            545        -1     1004
##  5  2013     1     1      554            600        -6      812
##  6  2013     1     1      554            558        -4      740
##  7  2013     1     1      555            600        -5      913
##  8  2013     1     1      557            600        -3      709
##  9  2013     1     1      557            600        -3      838
## 10  2013     1     1      558            600        -2      753
## # … with 336,766 more rows, and 13 more variables: sched_arr_time <int>,
## #   arr_delay <dbl>, carrier <chr>, flight <int>, tailnum <chr>,
## #   origin <chr>, dest <chr>, air_time <dbl>, distance <dbl>, hour <dbl>,
## #   minute <dbl>, time_hour <dttm>, försenad_kat <chr>
…
Om du istället vill ta ett urval som baseras på procent kan du använda sample_frac, här för 0.01%

sample_frac(flights, 0.001)

## # A tibble: 337 x 19
##     year month   day dep_time sched_dep_time dep_delay arr_time
##    <int> <int> <int>    <int>          <int>     <dbl>    <int>
##  1  2013     4     5     2036           2035         1     2343
##  2  2013     4    21      846            850        -4     1252
##  3  2013     2    18      626            630        -4      812
##  4  2013     6     2     1445           1445         0     1734
##  5  2013     7     9     1136           1125        11     1359
##  6  2013     2    25      532            530         2      854
##  7  2013    12    31     1713           1650        23     1935
##  8  2013    12    15       NA            755        NA       NA
##  9  2013     9    11     1227           1159        28     1512
## 10  2013     1    18     1500           1457         3     1817
## # … with 327 more rows, and 12 more variables: sched_arr_time <int>,
## #   arr_delay <dbl>, carrier <chr>, flight <int>, tailnum <chr>,
## #   origin <chr>, dest <chr>, air_time <dbl>, distance <dbl>, hour <dbl>,
## #   minute <dbl>, time_hour <dttm>
…
