Kapitel 4 Explorativ dataanalys | Kursmaterial Introduktion till R - Certifierad Data Scientist
…
Vilket land är det?

data %>% arrange(desc(gdpPercap))

## # A tibble: 142 x 6
##    country       continent  year lifeExp       pop gdpPercap
##    <fct>         <fct>     <int>   <dbl>     <int>     <dbl>
##  1 Kuwait        Asia       1972    67.7    841934   109348.
##  2 Switzerland   Europe     1972    73.8   6401400    27195.
##  3 Saudi Arabia  Asia       1972    53.9   6472756    24837.
##  4 United States Americas   1972    71.3 209896000    21806.
##  5 Libya         Africa     1972    52.8   2183877    21011.
##  6 Canada        Americas   1972    72.9  22284500    18971.
##  7 Norway        Europe     1972    74.3   3933004    18965.
##  8 Denmark       Europe     1972    73.5   4991596    18866.
##  9 Netherlands   Europe     1972    73.8  13329874    18795.
## 10 Bahrain       Asia       1972    63.3    230800    18269.
## # … with 132 more rows
…
4.10 Övningar Explorativ dataanalys

Datan vi använder idag kommer från Hemnet!

library(tidyverse)      # Innehåller många mindre paket bl.a ggplot2
library(scales)         # Färghanteringspaket
library(gapminder)      # Datasetet gapminder
library(hrbrthemes)     # Teman till ggplot2

hem <- read_csv("https://raw.githubusercontent.com/Ferrologic/ds-program-block2/master/data/hemnet_data.csv")

hem

## # A tibble: 99,838 x 15
##    sold_date  final_price square_m_price type  area  city   sq_m rooms   fee
##    <date>           <dbl>          <dbl> <chr> <chr> <chr> <dbl> <dbl> <dbl>
##  1 2019-01-11     2800000          56000 bost… järv… solna    50     2  3087
##  2 2019-01-11     1280000          18003 bost… östr… malmö   711     3  4346
##  3 2019-01-11     7250000          76316 frit… sote… sote…    95     6    NA
##  4 2019-01-11     2130000          38727 bost… väll… stoc…    55     2  3838
##  5 2019-01-11      950000          11176 fril… cent… kil      85     3    NA
##  6 2019-01-11     2195000          39909 bost… edsä… soll…    55     2  3208
##  7 2019-01-11     2900000          30851 par/… bran… hani…    94     3    NA
##  8 2019-01-11     4200000          46154 bost… minn… stoc…    91     4  4641
##  9 2019-01-11     2825000          49045 bost… erik… göte…   576     2  2875
## 10 2019-01-11     1995000          29556 bost… stoc… stoc…   675     2  5218
## # … with 99,828 more rows, and 6 more variables: add_area_sqm <dbl>,
## #   perc_change <dbl>, list_price <dbl>, price_diff <dbl>, month <chr>,
## #   weekday <chr>
…
